{
    "KPlugin": {
        "Description": "Configure file manager navigation",
        "Description[ar]": "اضبط التّنقّل في مدير الملفّات",
        "Description[az]": "Fayl meneceri naviqasiyasını tənzimləyin",
        "Description[bg]": "Конфигуриране на настройките за навигация на файловия мениджър",
        "Description[ca@valencia]": "Configura la navegació del gestor de fitxers",
        "Description[ca]": "Configura la navegació del gestor de fitxers",
        "Description[cs]": "Nastavení navigace správce souborů",
        "Description[da]": "Indstil navigation i filhåndtering",
        "Description[de]": "Einstellungen zur Navigation mit der Dateiverwaltung",
        "Description[en_GB]": "Configure file manager navigation",
        "Description[es]": "Configurar la navegación del gestor de archivos",
        "Description[eu]": "Konfiguratu fitxategi-kudeatzailearen nabigatzea",
        "Description[fi]": "Tiedostonhallinnan selausasetukset",
        "Description[fr]": "Configurer la navigation dans le gestionnaire de fichiers",
        "Description[ia]": "Configura navigation del gerente de file",
        "Description[id]": "Konfigurasikan navigasi pengelola file",
        "Description[is]": "Stilla flakkstýringar skráastjóra",
        "Description[it]": "Configura la navigazione col gestore dei file",
        "Description[ko]": "파일 관리자 탐색 설정",
        "Description[nl]": "Bestandsbeheerdernavigatie configureren",
        "Description[nn]": "Set opp navigasjonen i filhandsamaren",
        "Description[pl]": "Ustawienia poruszania się przy zarządzaniu plikami",
        "Description[pt]": "Configurar a navegação do gestor de ficheiros",
        "Description[pt_BR]": "Configura a navegação do gerenciador de arquivos",
        "Description[ro]": "Configurează navigarea cu gestionarul de fișiere",
        "Description[ru]": "Настройка навигации в диспетчере файлов",
        "Description[sk]": "Nastavenie navigácie správcu súborov",
        "Description[sl]": "Postavi krmarjenje v upravljalniku datotek",
        "Description[sv]": "Anpassa filhanterarens navigering",
        "Description[ta]": "கோப்பு உலாவியில் உலாவலை அமையுங்கள்",
        "Description[tr]": "Dosya yöneticisi dolaşımını yapılandır",
        "Description[uk]": "Налаштувати навігацію у менеджері файлів",
        "Description[vi]": "Cấu hình điều hướng trình quản lí tệp",
        "Description[x-test]": "xxConfigure file manager navigationxx",
        "Description[zh_CN]": "配置文件管理器导航功能",
        "Icon": "preferences-desktop-navigation",
        "Name": "Navigation",
        "Name[ar]": "التّنقّل",
        "Name[ast]": "Navegación",
        "Name[az]": "Naviqasiya",
        "Name[bg]": "Навигация",
        "Name[ca@valencia]": "Navegació",
        "Name[ca]": "Navegació",
        "Name[cs]": "Navigace",
        "Name[da]": "Navigation",
        "Name[de]": "Navigation",
        "Name[el]": "Πλοήγηση",
        "Name[en_GB]": "Navigation",
        "Name[es]": "Navegación",
        "Name[et]": "Liikumine",
        "Name[eu]": "Nabigatzea",
        "Name[fi]": "Selaus",
        "Name[fr]": "Navigation",
        "Name[gl]": "Navegación",
        "Name[he]": "ניווט",
        "Name[hi]": "संचालन",
        "Name[hu]": "Navigálás",
        "Name[ia]": "Navigation",
        "Name[id]": "Navigasi",
        "Name[is]": "Flakk",
        "Name[it]": "Navigazione",
        "Name[ja]": "ナビゲーション",
        "Name[ko]": "탐색",
        "Name[lt]": "Naršymas",
        "Name[lv]": "Navigācija",
        "Name[ml]": "നാവിഗേഷന്‍",
        "Name[my]": "လမ်းညွှန်",
        "Name[nb]": "Navigasjon",
        "Name[nl]": "Navigatie",
        "Name[nn]": "Navigasjon",
        "Name[pa]": "ਨੇਵੀਗੇਸ਼ਨ",
        "Name[pl]": "Poruszanie się",
        "Name[pt]": "Navegação",
        "Name[pt_BR]": "Navegação",
        "Name[ro]": "Navigare",
        "Name[ru]": "Навигация",
        "Name[se]": "Navigašuvdna",
        "Name[sk]": "Navigácia",
        "Name[sl]": "Krmarjenje",
        "Name[sr@ijekavian]": "Навигација",
        "Name[sr@ijekavianlatin]": "Navigacija",
        "Name[sr@latin]": "Navigacija",
        "Name[sr]": "Навигација",
        "Name[sv]": "Navigering",
        "Name[ta]": "உலாவல்",
        "Name[tr]": "Dolaşım",
        "Name[uk]": "Навігація",
        "Name[vi]": "Điều hướng",
        "Name[x-test]": "xxNavigationxx",
        "Name[zh_CN]": "导航",
        "Name[zh_TW]": "導覽",
        "ServiceTypes": [
            "KCModule"
        ]
    },
    "X-DocPath": "dolphin/configuring-dolphin.html#preferences-dialog-navigation",
    "X-KDE-Keywords": "file manager",
    "X-KDE-Keywords[ar]": "مدير ملفّات ملفات الملفّات الملفات",
    "X-KDE-Keywords[ast]": "xestor de ficheros",
    "X-KDE-Keywords[az]": "fayl meneceri",
    "X-KDE-Keywords[ca@valencia]": "gestor de fitxers",
    "X-KDE-Keywords[ca]": "gestor de fitxers",
    "X-KDE-Keywords[cs]": "správce souborů",
    "X-KDE-Keywords[da]": "filhåndtering",
    "X-KDE-Keywords[de]": "Dateiverwaltung",
    "X-KDE-Keywords[el]": "διαχειριστής αρχείων",
    "X-KDE-Keywords[en_GB]": "file manager",
    "X-KDE-Keywords[es]": "gestor de archivos",
    "X-KDE-Keywords[et]": "failihaldur",
    "X-KDE-Keywords[eu]": "Fitxategi-kudeatzailea",
    "X-KDE-Keywords[fi]": "tiedostonhallinta",
    "X-KDE-Keywords[fr]": "gestionnaire de fichiers",
    "X-KDE-Keywords[gl]": "xestor de ficheiros",
    "X-KDE-Keywords[he]": "מנהל קבצים",
    "X-KDE-Keywords[hi]": "फ़ाइल प्रबंधक",
    "X-KDE-Keywords[hu]": "fájlkezelő",
    "X-KDE-Keywords[ia]": "gerente de file",
    "X-KDE-Keywords[id]": "pengelola file",
    "X-KDE-Keywords[is]": "skráastjóri",
    "X-KDE-Keywords[it]": "gestore dei file",
    "X-KDE-Keywords[ja]": "ファイルマネージャ",
    "X-KDE-Keywords[ko]": "파일 관리자",
    "X-KDE-Keywords[lt]": "failų tvarkytuvė",
    "X-KDE-Keywords[lv]": "datņu pārvaldnieks",
    "X-KDE-Keywords[ml]": "ഫയൽ മാനേജർ",
    "X-KDE-Keywords[my]": "ဖိုင်လ်မန်နေဂျာ",
    "X-KDE-Keywords[nb]": "filbehandler",
    "X-KDE-Keywords[nl]": "bestandsbeheerder",
    "X-KDE-Keywords[nn]": "filhandsamar",
    "X-KDE-Keywords[pa]": "ਫਾਇਲ ਮੈਨੇਜਰ",
    "X-KDE-Keywords[pl]": "zarządzanie plikami",
    "X-KDE-Keywords[pt]": "gestor de ficheiros",
    "X-KDE-Keywords[pt_BR]": "gerenciador de arquivos",
    "X-KDE-Keywords[ro]": "gestionar de fișiere",
    "X-KDE-Keywords[ru]": "диспетчер файлов",
    "X-KDE-Keywords[sk]": "správca súborov",
    "X-KDE-Keywords[sl]": "upravljalnik datotek",
    "X-KDE-Keywords[sr@ijekavian]": "file manager,менаџер фајлова",
    "X-KDE-Keywords[sr@ijekavianlatin]": "file manager,menadžer fajlova",
    "X-KDE-Keywords[sr@latin]": "file manager,menadžer fajlova",
    "X-KDE-Keywords[sr]": "file manager,менаџер фајлова",
    "X-KDE-Keywords[sv]": "filhanterare",
    "X-KDE-Keywords[ta]": "file manager,கோப்பு மேலாளர், கோப்பு நிர்வாகி, கோப்பு உலாவி",
    "X-KDE-Keywords[tr]": "dosya yöneticisi",
    "X-KDE-Keywords[uk]": "менеджер,керування,файл,файли",
    "X-KDE-Keywords[vi]": "file manager,trình quản lí tệp",
    "X-KDE-Keywords[x-test]": "xxfile managerxx",
    "X-KDE-Keywords[zh_CN]": "文件管理器",
    "X-KDE-Keywords[zh_TW]": "檔案管理員"
}
